…
    ## Parsed with column specification:
    ## cols(
    ##   .default = col_double(),
    ##   day = col_character()
    ## )

    ## See spec(...) for full column specifications.

``` r
accel_df
```

    ## # A tibble: 50,400 x 6
    ##     week day_id day    minute activity_count weekend
    ##    <int>  <int> <fct>   <dbl>          <dbl> <lgl>  
    ##  1     1      1 Friday      1           88.4 FALSE  
    ##  2     1      1 Friday      2           82.2 FALSE  
    ##  3     1      1 Friday      3           64.4 FALSE  
    ##  4     1      1 Friday      4           70.0 FALSE  
    ##  5     1      1 Friday      5           75.0 FALSE  
    ##  6     1      1 Friday      6           66.3 FALSE  
    ##  7     1      1 Friday      7           53.8 FALSE  
    ##  8     1      1 Friday      8           47.8 FALSE  
    ##  9     1      1 Friday      9           55.5 FALSE  
    ## 10     1      1 Friday     10           43.0 FALSE  
    ## # … with 50,390 more rows
…
